{
  "_comment": "first record uses unknown uids 13 and 14",
  "users": [
    {
      "uid": 12,
      "name": "Bob Samantha",
      "email": null
    },
    {
      "uid": 5,
      "name": "Roger",
      "email": "docs@odcs.cdo"
    },
    {
      "uid": 6,
      "name": "Amélie",
      "email": "docsf-@odcs.cdo"
    },
    {
      "uid": 7,
      "name": "Alberte",
      "email": "dc2421@odcs.cdo"
    },
    {
      "uid": 8,
      "name": "Minou",
      "email": "occ-fid@odcs.cdo"
    },
    {
      "uid": 1031832,
      "name": "Élisabette",
      "email": "some@address.mail"
    }
  ],
  "records": [
    {
      "rid": "afd1b2b4-b78f-4c50-8bc1-6a7574d7e5c3",
      "sender": 12,
      "receivers": [
        5,
        6,
        12
      ],
      "amount": 103.13,
      "currency": "€"
    },
    {
      "rid": "6dd0323c-0b99-44c7-84fd-fa69e333957a",
      "sender": 13,
      "receivers": [
        14,
        8,
        1031832
      ],
      "amount": 40.0,
      "currency": "€"
    }
  ]
}
